{
    "AvenuePlan": {
        "folded": false,
        "data": {
            "Test0": {
                "folded": true,
                "data": {
                    "Waveform Plots": {
                        "folded": true,
                        "data": {
                            "plot0": "somepath/to/somewhere"
                        }
                    }
                }
            }
        }
    }
}